<?xml version="1.0" encoding="UTF-8" standalone="no"?>
<!DOCTYPE svg PUBLIC "-//W3C//DTD SVG 1.1//EN" "http://www.w3.org/Graphics/SVG/1.1/DTD/svg11.dtd">
<svg version="1.1" id="Layer_1" xmlns="http://www.w3.org/2000/svg" xmlns:xlink="http://www.w3.org/1999/xlink" x="0px" y="0px" width="16px" height="16px" viewBox="0 0 16 16" enable-background="new 0 0 16 16" xml:space="preserve">  <image id="image0" width="16" height="16" x="0" y="0"
    xlink:href="data:image/png;base64,iVBORw0KGgoAAAANSUhEUgAAABAAAAAQBAMAAADt3eJSAAAABGdBTUEAALGPC/xhBQAAACBjSFJN
AAB6JgAAgIQAAPoAAACA6AAAdTAAAOpgAAA6mAAAF3CculE8AAAALVBMVEUAAACmzjmmzjmmzjmm
zjmmzjmmzjn////T55ySwCms0UXj8MG82mv0+ebe7bVo+8HtAAAABnRSTlMAYL8gz+/2H1yYAAAA
AWJLR0QHFmGI6wAAAAd0SU1FB+MDHRAJHGAycmgAAABjSURBVAjXY2BgEEpLU2QAApM0IHBmYGAO
q5iWlpZqwMCSBmKkOTCIpc2clrYsLZFBLa1ienn1siSGNCBj2tlnaRBGThmUkVaGJKIGUZME1A7W
lQg0EAwcgFaAaKAVcEthzgAAZdUvienPU1EAAAAldEVYdGRhdGU6Y3JlYXRlADIwMTktMDgtMTZU
MDk6NTg6MjUtMDU6MDAdC3+GAAAAJXRFWHRkYXRlOm1vZGlmeQAyMDE5LTAzLTI5VDE2OjA5OjI4
LTA1OjAwXuzyVwAAAABJRU5ErkJggg==" />
</svg>
